\relax 
\providecommand\hyper@newdestlabel[2]{}
\providecommand\HyperFirstAtBeginDocument{\AtBeginDocument}
\HyperFirstAtBeginDocument{\ifx\hyper@anchor\@undefined
\global\let\oldcontentsline\contentsline
\gdef\contentsline#1#2#3#4{\oldcontentsline{#1}{#2}{#3}}
\global\let\oldnewlabel\newlabel
\gdef\newlabel#1#2{\newlabelxx{#1}#2}
\gdef\newlabelxx#1#2#3#4#5#6{\oldnewlabel{#1}{{#2}{#3}}}
\AtEndDocument{\ifx\hyper@anchor\@undefined
\let\contentsline\oldcontentsline
\let\newlabel\oldnewlabel
\fi}
\fi}
\global\let\hyper@last\relax 
\gdef\HyperFirstAtBeginDocument#1{#1}
\providecommand\HyField@AuxAddToFields[1]{}
\providecommand\HyField@AuxAddToCoFields[2]{}
\citation{singularity}
\citation{orl}
\citation{travelingSalesman}
\citation{clbimage}
\citation{artix7Overview}
\citation{singularity}
\citation{singularity}
\citation{saiSiavoosh}
\@writefile{toc}{\contentsline {section}{\numberline {1}Introduction}{10}{section.1}}
\newlabel{Introduction}{{1}{10}{Introduction}{section.1}{}}
\@writefile{lof}{\contentsline {figure}{\numberline {1}{\ignorespaces Exponential growth of computing \cite  {singularity}\relax }}{10}{figure.caption.1}}
\providecommand*\caption@xref[2]{\@setref\relax\@undefined{#1}}
\newlabel{fig:computingGrowth}{{1}{10}{Exponential growth of computing \cite {singularity}\relax }{figure.caption.1}{}}
\@writefile{toc}{\contentsline {subsection}{\numberline {1.1}Background and motivation}{10}{subsection.1.1}}
\citation{smarthome}
\@writefile{toc}{\contentsline {subsection}{\numberline {1.2}Problem and goal definition}{11}{subsection.1.2}}
\citation{orl}
\citation{artix7Overview}
\citation{GIT}
\citation{orl}
\citation{orl}
\@writefile{toc}{\contentsline {subsection}{\numberline {1.3}Methodology}{12}{subsection.1.3}}
\@writefile{lof}{\contentsline {figure}{\numberline {2}{\ignorespaces The ORL Database of Faces \cite  {orl}\relax }}{13}{figure.caption.2}}
\newlabel{fig:orlDataset}{{2}{13}{The ORL Database of Faces \cite {orl}\relax }{figure.caption.2}{}}
\citation{tyai}
\citation{mountcastle}
\citation{ferrets}
\@writefile{toc}{\contentsline {section}{\numberline {2}Theory}{14}{section.2}}
\@writefile{toc}{\contentsline {subsection}{\numberline {2.1}Artificial neural networks}{14}{subsection.2.1}}
\@writefile{toc}{\contentsline {subsubsection}{\numberline {2.1.1}Artificial neuron}{14}{subsubsection.2.1.1}}
\citation{rosenblatt}
\@writefile{lof}{\contentsline {figure}{\numberline {3}{\ignorespaces Structure of biological neuron cell\relax }}{15}{figure.caption.3}}
\newlabel{fig:biological_neuron}{{3}{15}{Structure of biological neuron cell\relax }{figure.caption.3}{}}
\@writefile{lof}{\contentsline {figure}{\numberline {4}{\ignorespaces Artificial neuron with bias\relax }}{15}{figure.caption.4}}
\newlabel{fig:artificial_neuron}{{4}{15}{Artificial neuron with bias\relax }{figure.caption.4}{}}
\citation{book:Springer}
\@writefile{lof}{\contentsline {figure}{\numberline {5}{\ignorespaces Typical activation functions used in ANNs\relax }}{17}{figure.caption.5}}
\newlabel{fig:activationFunctions}{{5}{17}{Typical activation functions used in ANNs\relax }{figure.caption.5}{}}
\citation{briandolhansky}
\citation{briandolhansky4}
\citation{book:nnLearningAndExpertSys}
\citation{constructiveLearning}
\@writefile{toc}{\contentsline {subsubsection}{\numberline {2.1.2}Feedforward neural network}{19}{subsubsection.2.1.2}}
\@writefile{lof}{\contentsline {figure}{\numberline {6}{\ignorespaces Feedforward neural network\relax }}{19}{figure.caption.6}}
\newlabel{fig:fnn}{{6}{19}{Feedforward neural network\relax }{figure.caption.6}{}}
\citation{lifelongLearning}
\citation{exampleCAD}
\citation{exampleFaultDiag}
\@writefile{toc}{\contentsline {subsubsection}{\numberline {2.1.3}Constructive Learning}{20}{subsubsection.2.1.3}}
\@writefile{toc}{\contentsline {subsection}{\numberline {2.2}Evolutionary computation}{20}{subsection.2.2}}
\@writefile{toc}{\contentsline {subsubsection}{\numberline {2.2.1}Genetic algorithms}{20}{subsubsection.2.2.1}}
\citation{GAsurvey}
\citation{travelingSalesman}
\citation{travelingSalesman}
\@writefile{lof}{\contentsline {figure}{\numberline {7}{\ignorespaces Simple Genetic Algorithm \cite  {travelingSalesman}\relax }}{21}{figure.caption.7}}
\newlabel{fig:SGA}{{7}{21}{Simple Genetic Algorithm \cite {travelingSalesman}\relax }{figure.caption.7}{}}
\citation{GAOverview}
\citation{clbimage}
\citation{clbimage}
\@writefile{lof}{\contentsline {figure}{\numberline {8}{\ignorespaces Population of Simple Genetic Algorithm\relax }}{22}{figure.caption.8}}
\newlabel{fig:SGA_population}{{8}{22}{Population of Simple Genetic Algorithm\relax }{figure.caption.8}{}}
\@writefile{lof}{\contentsline {figure}{\numberline {9}{\ignorespaces Crossover operator\relax }}{22}{figure.caption.9}}
\newlabel{fig:SGA_crossover}{{9}{22}{Crossover operator\relax }{figure.caption.9}{}}
\@writefile{toc}{\contentsline {subsection}{\numberline {2.3}Field Programmable Gate Array basics}{22}{subsection.2.3}}
\citation{xcell}
\citation{fpgaNNsurvey}
\citation{fpgaNNsurvey}
\@writefile{lof}{\contentsline {figure}{\numberline {10}{\ignorespaces Typical logic block \cite  {clbimage}\relax }}{23}{figure.caption.10}}
\newlabel{fig:clb}{{10}{23}{Typical logic block \cite {clbimage}\relax }{figure.caption.10}{}}
\@writefile{toc}{\contentsline {subsection}{\numberline {2.4}FPGA implementation of neural networks}{23}{subsection.2.4}}
\newlabel{FPGAImplementationIssues}{{2.4}{23}{FPGA implementation of neural networks}{subsection.2.4}{}}
\newlabel{NNparallelism}{{2.4}{23}{}{subsection.2.4}{}}
\citation{stochasticNNonFPGA}
\citation{TDM}
\citation{stochasticNNonFPGA}
\citation{gamal}
\citation{FPGArouting}
\newlabel{routing}{{2.4}{25}{}{subsection.2.4}{}}
\citation{floatingPointFeasibility}
\citation{precision_analysis}
\citation{backPropagationPrecision}
\citation{linearApproxSigmoid}
\citation{alaw}
\citation{alippi}
\citation{zhang}
\citation{linearApproxCRI}
\@writefile{toc}{\contentsline {subsection}{\numberline {2.5}Data representation and precision}{26}{subsection.2.5}}
\newlabel{dataRepresentation}{{2.5}{26}{Data representation and precision}{subsection.2.5}{}}
\@writefile{toc}{\contentsline {subsection}{\numberline {2.6}Activation function implementation}{26}{subsection.2.6}}
\newlabel{sec:Activation function}{{2.6}{26}{Activation function implementation}{subsection.2.6}{}}
\citation{activationFunctionHDLCoder}
\citation{sigmoidCRIvsLUT}
\newlabel{eq:CRI}{{1}{27}{Activation function implementation}{equation.2.1}{}}
\@writefile{lof}{\contentsline {figure}{\numberline {11}{\ignorespaces Sigmoid function Piecewise Linear Approximation with CRI (L=2). On the left the initial approximation with three line segments and on the right approximation after one iteration, resulting 5 line segments\relax }}{27}{figure.caption.11}}
\newlabel{fig:sigmoidCRI}{{11}{27}{Sigmoid function Piecewise Linear Approximation with CRI (L=2). On the left the initial approximation with three line segments and on the right approximation after one iteration, resulting 5 line segments\relax }{figure.caption.11}{}}
\citation{saiSiavoosh}
\citation{coursera}
\@writefile{lof}{\contentsline {figure}{\numberline {12}{\ignorespaces Sigmoid function Lookup Table Approximation\relax }}{28}{figure.caption.12}}
\newlabel{fig:sigmoidLUT}{{12}{28}{Sigmoid function Lookup Table Approximation\relax }{figure.caption.12}{}}
\@writefile{toc}{\contentsline {section}{\numberline {3}Face recognition task}{28}{section.3}}
\@writefile{toc}{\contentsline {subsection}{\numberline {3.1}Neural network models}{28}{subsection.3.1}}
\newlabel{sec:nnmodels}{{3.1}{28}{Neural network models}{subsection.3.1}{}}
\@writefile{lot}{\contentsline {table}{\numberline {1}{\ignorespaces Differences between Matlab and Coursera NN implementation\relax }}{29}{table.caption.13}}
\newlabel{tab:matlabvscoursera}{{1}{29}{Differences between Matlab and Coursera NN implementation\relax }{table.caption.13}{}}
\@writefile{toc}{\contentsline {subsection}{\numberline {3.2}Experiments with optimizing the network}{29}{subsection.3.2}}
\citation{gpumatrixmulti}
\@writefile{toc}{\contentsline {subsubsection}{\numberline {3.2.1}Rounding the weights}{30}{subsubsection.3.2.1}}
\citation{pruning}
\@writefile{loa}{\contentsline {algocf}{\numberline {1}{\ignorespaces Rounding down the weights\relax }}{31}{algocf.1}}
\newlabel{fig:rounding_algo}{{1}{31}{Rounding the weights}{algocf.1}{}}
\@writefile{lof}{\contentsline {figure}{\numberline {13}{\ignorespaces The effect of rounding connections with floor on the accuracy of the network\relax }}{31}{figure.caption.14}}
\newlabel{fig:rounding_connections}{{13}{31}{The effect of rounding connections with floor on the accuracy of the network\relax }{figure.caption.14}{}}
\@writefile{toc}{\contentsline {subsubsection}{\numberline {3.2.2}Pruning insignificant connections}{31}{subsubsection.3.2.2}}
\@writefile{lof}{\contentsline {figure}{\numberline {14}{\ignorespaces An example result of pruning connections\relax }}{32}{figure.caption.15}}
\newlabel{fig:pruning_plot}{{14}{32}{An example result of pruning connections\relax }{figure.caption.15}{}}
\@writefile{toc}{\contentsline {subsubsection}{\numberline {3.2.3}Exploring layer connections with genetic algorithm}{32}{subsubsection.3.2.3}}
\@writefile{lot}{\contentsline {table}{\numberline {2}{\ignorespaces Description of variables optimized\relax }}{33}{table.caption.16}}
\newlabel{table:gene_table}{{2}{33}{Description of variables optimized\relax }{table.caption.16}{}}
\@writefile{lof}{\contentsline {figure}{\numberline {15}{\ignorespaces Chosen individuals for comparison. The numbers below the layers show how many neurons are in that layer.\relax }}{34}{figure.caption.17}}
\newlabel{fig:ga_individuals}{{15}{34}{Chosen individuals for comparison. The numbers below the layers show how many neurons are in that layer.\relax }{figure.caption.17}{}}
\@writefile{lot}{\contentsline {table}{\numberline {3}{\ignorespaces Results of optimizing the structure of the ANN with GA. Columns represent the ANN designs in comparison given in Figure \ref  {fig:ga_individuals}. The values given show the percentage of correct test data classifications.\relax }}{34}{table.caption.18}}
\newlabel{table:matlab_results}{{3}{34}{Results of optimizing the structure of the ANN with GA. Columns represent the ANN designs in comparison given in Figure \ref {fig:ga_individuals}. The values given show the percentage of correct test data classifications.\relax }{table.caption.18}{}}
\@writefile{lof}{\contentsline {figure}{\numberline {16}{\ignorespaces Gene layout used for finding optimal balance between performance and number of connections\relax }}{35}{figure.caption.19}}
\newlabel{fig:conn_gene}{{16}{35}{Gene layout used for finding optimal balance between performance and number of connections\relax }{figure.caption.19}{}}
\@writefile{toc}{\contentsline {subsubsection}{\numberline {3.2.4}Optimization of individual connections with GA}{35}{subsubsection.3.2.4}}
\@writefile{loa}{\contentsline {algocf}{\numberline {2}{\ignorespaces Finding connectivity of the network\relax }}{35}{algocf.2}}
\newlabel{alg:connections}{{2}{35}{Optimization of individual connections with GA}{algocf.2}{}}
\@writefile{lof}{\contentsline {figure}{\numberline {17}{\ignorespaces Performance of a partially connected network found with GA\relax }}{36}{figure.caption.21}}
\newlabel{fig:connection_ga_perf}{{17}{36}{Performance of a partially connected network found with GA\relax }{figure.caption.21}{}}
\@writefile{lof}{\contentsline {figure}{\numberline {18}{\ignorespaces Example of an optimized connection between input and hidden layer visualized as a graph\relax }}{37}{figure.caption.22}}
\newlabel{fig:individual_connections}{{18}{37}{Example of an optimized connection between input and hidden layer visualized as a graph\relax }{figure.caption.22}{}}
\@writefile{toc}{\contentsline {subsection}{\numberline {3.3}Approximation of activation function}{37}{subsection.3.3}}
\newlabel{activationFunctionApproximation}{{3.3}{37}{Approximation of activation function}{subsection.3.3}{}}
\@writefile{lof}{\contentsline {figure}{\numberline {19}{\ignorespaces Accuracy of neural network using LUT sigmoid approximations with different LUT sizes and ranges. A good choice would maximize the accuracy, while minimizing range and bit width.\relax }}{38}{figure.caption.23}}
\newlabel{fig:lutapprox}{{19}{38}{Accuracy of neural network using LUT sigmoid approximations with different LUT sizes and ranges. A good choice would maximize the accuracy, while minimizing range and bit width.\relax }{figure.caption.23}{}}
\@writefile{lof}{\contentsline {figure}{\numberline {20}{\ignorespaces Comparing neural network test accuracy with LUT and CRI approximation.\relax }}{38}{figure.caption.24}}
\newlabel{fig:lutvscri}{{20}{38}{Comparing neural network test accuracy with LUT and CRI approximation.\relax }{figure.caption.24}{}}
\citation{devModelBlog}
\citation{gadaeaFPGA}
\@writefile{toc}{\contentsline {section}{\numberline {4}Hardware realization}{39}{section.4}}
\newlabel{hwrealization}{{4}{39}{Hardware realization}{section.4}{}}
\@writefile{toc}{\contentsline {subsection}{\numberline {4.1}Design process}{39}{subsection.4.1}}
\@writefile{lof}{\contentsline {figure}{\numberline {21}{\ignorespaces The development process of the hardware realization\relax }}{40}{figure.caption.25}}
\newlabel{fig:vmodel}{{21}{40}{The development process of the hardware realization\relax }{figure.caption.25}{}}
\@writefile{toc}{\contentsline {subsection}{\numberline {4.2}Design choices}{40}{subsection.4.2}}
\@writefile{toc}{\contentsline {subsection}{\numberline {4.3}Architecture}{41}{subsection.4.3}}
\@writefile{lof}{\contentsline {figure}{\numberline {22}{\ignorespaces General view of the datapath of the design\relax }}{42}{figure.caption.26}}
\newlabel{fig:top_module}{{22}{42}{General view of the datapath of the design\relax }{figure.caption.26}{}}
\@writefile{lof}{\contentsline {figure}{\numberline {23}{\ignorespaces Controller's state diagram\relax }}{43}{figure.caption.27}}
\newlabel{fig:fsm}{{23}{43}{Controller's state diagram\relax }{figure.caption.27}{}}
\@writefile{loa}{\contentsline {algocf}{\numberline {3}{\ignorespaces Neuron VHDL code\relax }}{44}{algocf.3}}
\newlabel{alg:neuronVHDL}{{3}{44}{}{algocf.3}{}}
\@writefile{toc}{\contentsline {subsection}{\numberline {4.4}Simulation and verification}{44}{subsection.4.4}}
\citation{artix7Overview}
\citation{artix7Overview}
\citation{artix7Overview}
\@writefile{loa}{\contentsline {algocf}{\numberline {4}{\ignorespaces The algorithm for reference model\relax }}{45}{algocf.4}}
\newlabel{alg:golden_model}{{4}{45}{}{algocf.4}{}}
\@writefile{toc}{\contentsline {subsubsection}{\numberline {4.4.1}Xilinx Artix-7 FPGA overview}{45}{subsubsection.4.4.1}}
\@writefile{lot}{\contentsline {table}{\numberline {4}{\ignorespaces Xilinx Artix-7 XC7A100T \cite  {artix7Overview}\relax }}{46}{table.caption.29}}
\newlabel{tab:artix7}{{4}{46}{Xilinx Artix-7 XC7A100T \cite {artix7Overview}\relax }{table.caption.29}{}}
\@writefile{toc}{\contentsline {subsection}{\numberline {4.5}Results}{46}{subsection.4.5}}
\@writefile{lot}{\contentsline {table}{\numberline {5}{\ignorespaces Comparison of speed of the software and hardware design, both with pruned and unpruned connections.\relax }}{47}{table.caption.30}}
\newlabel{tab:HwSwComparison}{{5}{47}{Comparison of speed of the software and hardware design, both with pruned and unpruned connections.\relax }{table.caption.30}{}}
\@writefile{lot}{\contentsline {table}{\numberline {6}{\ignorespaces Power consumption of the neural network design\relax }}{48}{table.caption.31}}
\newlabel{tab:powerConsumption}{{6}{48}{Power consumption of the neural network design\relax }{table.caption.31}{}}
\@writefile{lot}{\contentsline {table}{\numberline {7}{\ignorespaces FPGA utilization\relax }}{48}{table.caption.32}}
\newlabel{tab:utilization}{{7}{48}{FPGA utilization\relax }{table.caption.32}{}}
\@writefile{lot}{\contentsline {table}{\numberline {8}{\ignorespaces FPGA utilization breakdown by components\relax }}{48}{table.caption.33}}
\newlabel{tab:utilizationComponents}{{8}{48}{FPGA utilization breakdown by components\relax }{table.caption.33}{}}
\@writefile{toc}{\contentsline {section}{\numberline {5}Conclusion}{49}{section.5}}
\newlabel{Conclusion}{{5}{49}{Conclusion}{section.5}{}}
\bibstyle{ieeetr}
\bibdata{literature}
\bibcite{singularity}{1}
\bibcite{orl}{2}
\bibcite{travelingSalesman}{3}
\bibcite{clbimage}{4}
\bibcite{artix7Overview}{5}
\bibcite{saiSiavoosh}{6}
\bibcite{smarthome}{7}
\bibcite{GIT}{8}
\bibcite{tyai}{9}
\bibcite{mountcastle}{10}
\bibcite{ferrets}{11}
\bibcite{rosenblatt}{12}
\bibcite{book:Springer}{13}
\bibcite{briandolhansky}{14}
\bibcite{briandolhansky4}{15}
\bibcite{book:nnLearningAndExpertSys}{16}
\bibcite{constructiveLearning}{17}
\bibcite{lifelongLearning}{18}
\bibcite{exampleCAD}{19}
\bibcite{exampleFaultDiag}{20}
\bibcite{GAsurvey}{21}
\bibcite{GAOverview}{22}
\bibcite{xcell}{23}
\bibcite{fpgaNNsurvey}{24}
\bibcite{stochasticNNonFPGA}{25}
\bibcite{TDM}{26}
\bibcite{gamal}{27}
\bibcite{FPGArouting}{28}
\bibcite{floatingPointFeasibility}{29}
\bibcite{precision_analysis}{30}
\bibcite{backPropagationPrecision}{31}
\bibcite{linearApproxSigmoid}{32}
\bibcite{alaw}{33}
\bibcite{alippi}{34}
\bibcite{zhang}{35}
\bibcite{linearApproxCRI}{36}
\bibcite{activationFunctionHDLCoder}{37}
\bibcite{sigmoidCRIvsLUT}{38}
\bibcite{coursera}{39}
\bibcite{gpumatrixmulti}{40}
\bibcite{pruning}{41}
\bibcite{devModelBlog}{42}
\bibcite{gadaeaFPGA}{43}
\newlabel{fig:deviceUtil}{{\caption@xref {fig:deviceUtil}{ on input line 1202}}{52}{}{figure.caption.34}{}}
\newlabel{LastPage}{{}{52}{}{page.52}{}}
\xdef\lastpage@lastpage{52}
\xdef\lastpage@lastpageHy{52}
