00001010
00001011
00001011
00001100
00001100
00001100
00001100
00001011
00001010
00001010
00001010
00001010
00001010
00001011
00001010
00001010
00001010
00001010
00001010
00001010
00001011
00001011
00001010
00001010
00001010
00001010
00001010
00001011
00001011
00001011
00001100
00001100
00001101
00001101
00001110
00001110
00001111
00001111
00001111
00001111
00010000
00010000
00010000
00010000
00010000
00010000
00001111
00001111
00001110
00001101
00001011
00001001
00001000
00000111
00000110
00000110
00000111
00000111
00000111
00001000
00001001
00001010
00001011
00001011
00001100
00001101
00001111
00001111
00001111
00001111
00001111
00001111
00001111
00001111
00001110
00001100
00001011
00001010
00001010
00001010
00001010
00001010
00001010
00001010
00001001
00001000
00000111
00000110
00000110
00000111
00001000
00001001
00001001
00001000
00001000
00000111
00001000
00001000
00001001
00001001
00001010
00001010
00001001
00001001
00001000
00000111
00000110
00000101
00000100
00000011
00000011
00000011
11110001
11110010
11110010
11110010
11110010
11110010
11110010
11110001
11110001
11110001
11110001
11110001
11110001
11110001
11110000
11110001
11110000
11110000
11110000
11110001
11110001
11110001
11110010
11110010
11110010
11110010
11110011
11110100
11110100
11110100
11110100
11110100
11110100
11110101
11110101
11110101
11110101
11110101
11110101
11110110
11110110
11110110
11110110
11110110
11110110
11110110
11110110
11110110
11110110
11110110
11110110
11110110
11110101
11110101
11110101
11110100
11110100
11110100
11110011
11110011
11110011
11110100
11110100
11110100
11110100
11110011
11110011
11110011
11110011
11110011
11110011
11110011
11110011
11110011
11110011
11110011
11110011
11110011
11110011
11110011
11110100
11110100
11110100
11110101
11110101
11110101
11110101
11110100
11110100
11110101
11110101
11110110
11110110
11110110
11110101
11110101
11110101
11110110
11110110
11110110
11110110
11110110
11110110
11110110
11110110
11110110
11110110
11110110
11110101
11110101
11110101
